INDEX VERSION 1.127+/Users/4nc3str4l/Desktop/mgs/.metadata/.plugins/org.eclipse.jdt.core
1511570354.index
156905802.index
3266567714.index
2171826273.index
4291364629.index
1040376109.index
1242869121.index
3683318637.index
2783648097.index
3712507179.index
1831474627.index
2376625133.index
306326927.index
1761014631.index
3357112224.index
2545238116.index
1271342938.index
3960317803.index
1833648217.index
1819685514.index
419607439.index
3085072714.index
1384487945.index
3321539481.index
2802271970.index
3302703152.index
